{
    "key": "group_5ddbd0afb84fd",
    "title": "CTA",
    "fields": [
        {
            "key": "field_5ddbd69d92449",
            "label": "Overskrift",
            "name": "cta_title",
            "type": "text",
            "instructions": "",
            "required": 0,
            "conditional_logic": 0,
            "wrapper": {
                "width": "33.3",
                "class": "",
                "id": ""
            },
            "default_value": "",
            "placeholder": "",
            "prepend": "",
            "append": "",
            "maxlength": ""
        },
        {
            "key": "field_5ddbd66b92447",
            "label": "Link",
            "name": "cta_link",
            "type": "link",
            "instructions": "",
            "required": 0,
            "conditional_logic": 0,
            "wrapper": {
                "width": "33.3",
                "class": "",
                "id": ""
            },
            "return_format": "array"
        },
        {
            "key": "field_5ddbd68c92448",
            "label": "Link tekst",
            "name": "cta_link_text",
            "type": "text",
            "instructions": "",
            "required": 0,
            "conditional_logic": 0,
            "wrapper": {
                "width": "33.3",
                "class": "",
                "id": ""
            },
            "default_value": "",
            "placeholder": "",
            "prepend": "",
            "append": "",
            "maxlength": ""
        },
        {
            "key": "field_5ddbd0b492446",
            "label": "Baggrundsfarve",
            "name": "cta_bg",
            "type": "select",
            "instructions": "Vælg sektionens baggrundsfarve.",
            "required": 0,
            "conditional_logic": 0,
            "wrapper": {
                "width": "",
                "class": "",
                "id": ""
            },
            "choices": {
                "none": "Ingen",
                "beige": "Beige",
                "brown": "Brun"
            },
            "default_value": [
                "beige"
            ],
            "allow_null": 0,
            "multiple": 0,
            "ui": 0,
            "return_format": "value",
            "ajax": 0,
            "placeholder": ""
        }
    ],
    "location": [
        [
            {
                "param": "options_page",
                "operator": "==",
                "value": "global-content"
            }
        ]
    ],
    "menu_order": 1,
    "position": "normal",
    "style": "default",
    "label_placement": "top",
    "instruction_placement": "label",
    "hide_on_screen": "",
    "active": 1,
    "description": "",
    "modified": 1575896319
}